<?xml version="1.0" encoding="iso-8859-1"?>
<!-- Generator: Adobe Illustrator 16.0.0, SVG Export Plug-In . SVG Version: 6.00 Build 0)  -->
<!DOCTYPE svg PUBLIC "-//W3C//DTD SVG 1.1//EN" "http://www.w3.org/Graphics/SVG/1.1/DTD/svg11.dtd">
<svg version="1.1" id="Capa_1" xmlns="http://www.w3.org/2000/svg" xmlns:xlink="http://www.w3.org/1999/xlink" x="0px" y="0px"
	 width="352.326px" height="352.327px" viewBox="0 0 352.326 352.327" style="enable-background:new 0 0 352.326 352.327;"
	 xml:space="preserve">
<g>
	<g>
		<path d="M204.994,193.713c-4.475,0-8.194,1.516-10.757,4.385c-2.3,2.571-3.564,6.068-3.564,9.847
			c0,6.939,4.532,14.41,14.482,14.41c4.474,0,8.194-1.516,10.757-4.386c2.298-2.571,3.562-6.067,3.562-9.846
			C219.475,201.183,214.943,193.713,204.994,193.713z"/>
		<path d="M147.903,158.913c4.487,0,8.217-1.513,10.787-4.373c2.3-2.562,3.567-6.045,3.567-9.808
			c0-6.918-4.542-14.363-14.517-14.363c-10.17,0-14.722,7.124-14.722,14.183C133.018,151.469,137.676,158.913,147.903,158.913z"/>
		<path d="M176.164,62.745c-62.539,0-113.418,50.879-113.418,113.418c0,62.539,50.879,113.418,113.418,113.418
			s113.418-50.879,113.418-113.418C289.582,113.624,238.703,62.745,176.164,62.745z M127.072,126.31
			c5.051-5.505,12.198-8.415,20.668-8.415c18.203,0,27.728,13.497,27.728,26.828c0,7.001-2.477,13.542-6.973,18.419
			c-5.073,5.501-12.25,8.41-20.755,8.41c-18.122,0-27.604-13.497-27.604-26.829C120.136,137.725,122.599,131.186,127.072,126.31z
			 M144.096,222.29c-1.101,1.229-3.351,2.234-5.001,2.234h-11.697c-1.65,0-2.097-1.004-0.994-2.229l82.535-91.765
			c1.104-1.227,3.355-2.255,5.006-2.285l11.584-0.212c1.649-0.03,2.099,0.951,0.998,2.18L144.096,222.29z M225.354,226.182
			c-4.977,5.396-12.018,8.25-20.359,8.25c-17.778,0-27.08-13.239-27.08-26.316c0-6.865,2.417-13.28,6.805-18.063
			c4.955-5.399,11.965-8.255,20.274-8.255c17.856,0,27.198,13.24,27.198,26.317C232.192,214.981,229.764,221.397,225.354,226.182z"
			/>
		<path d="M322.759,223.797c5.22-16.073,29.567-29.82,29.567-47.634c0-17.814-24.348-31.562-29.567-47.635
			c-5.409-16.659,6.021-42.056-4.07-55.922c-10.192-14.005-37.947-10.933-51.952-21.125C252.87,41.389,247.272,13.989,230.612,8.58
			c-16.073-5.219-36.636,13.487-54.449,13.487c-17.814,0-38.376-18.707-54.45-13.487c-16.659,5.409-22.256,32.81-36.123,42.901
			c-14.005,10.192-41.759,7.12-51.952,21.125c-10.091,13.867,1.338,39.264-4.071,55.923C24.348,144.602,0,158.35,0,176.164
			c0,17.812,24.348,31.561,29.567,47.635c5.409,16.659-6.021,42.056,4.071,55.922c10.192,14.005,37.947,10.934,51.952,21.125
			c13.866,10.092,19.464,37.492,36.124,42.901c16.073,5.219,36.635-13.488,54.449-13.488c17.813,0,38.376,18.707,54.45,13.487
			c16.659-5.409,22.256-32.811,36.123-42.901c14.005-10.191,41.759-7.12,51.952-21.125
			C328.78,265.853,317.35,240.457,322.759,223.797z M176.164,306.582c-71.913,0-130.418-58.505-130.418-130.418
			c0-71.914,58.505-130.418,130.418-130.418s130.418,58.505,130.418,130.418C306.582,248.077,248.077,306.582,176.164,306.582z"/>
	</g>
</g>
<g>
</g>
<g>
</g>
<g>
</g>
<g>
</g>
<g>
</g>
<g>
</g>
<g>
</g>
<g>
</g>
<g>
</g>
<g>
</g>
<g>
</g>
<g>
</g>
<g>
</g>
<g>
</g>
<g>
</g>
</svg>
